{
  "firstName": "Aleksandr",
  "lastName": "Kezerev",
  "passwordHash": "A386E132517933A1B571EDFB965B9309491327ACC488CAC9B0D36DB27A04FDAD",
  "formOfStudy": "S",
  "iHaveReadTheRulesOfTheCourse": true
}
